IP地址,端口,TLS,数据中心,地区,城市,网络延迟,下载速度
123.156.228.6,38000,true,HKG,Asia Pacific,Hong Kong,17 ms,39187 kB/s
71.136.119.200,50001,true,SIN,Asia Pacific,Singapore,32 ms,21576 kB/s
106.75.145.232,4431,true,HKG,Asia Pacific,Hong Kong,39 ms,15283 kB/s
106.75.139.198,4431,true,HKG,Asia Pacific,Hong Kong,39 ms,12815 kB/s
220.185.151.166,20014,true,HKG,Asia Pacific,Hong Kong,28 ms,12715 kB/s
124.202.166.164,1443,true,LAX,North America,Los Angeles,32 ms,9131 kB/s
223.72.109.105,81,true,HKG,Asia Pacific,Hong Kong,38 ms,8205 kB/s
218.98.26.211,59137,true,HKG,Asia Pacific,Hong Kong,8 ms,6282 kB/s
103.192.214.167,4443,true,HKG,Asia Pacific,Hong Kong,7 ms,1881 kB/s
121.4.66.215,10443,true,IAD,North America,Ashburn,3 ms,266 kB/s
