IP地址,端口,TLS,数据中心,地区,城市,网络延迟,下载速度
119.8.116.71,443,true,HKG,Asia Pacific,Hong Kong,41 ms,41442 kB/s
199.15.76.35,443,true,HKG,Asia Pacific,Hong Kong,37 ms,31618 kB/s
38.47.100.197,443,true,HKG,Asia Pacific,Hong Kong,68 ms,7292 kB/s
154.202.59.88,443,true,HKG,Asia Pacific,Hong Kong,37 ms,3148 kB/s
43.154.209.116,443,true,HKG,Asia Pacific,Hong Kong,31 ms,1878 kB/s
119.13.90.201,443,true,HKG,Asia Pacific,Hong Kong,36 ms,1622 kB/s
182.255.45.182,443,true,HKG,Asia Pacific,Hong Kong,35 ms,1350 kB/s
47.75.122.158,443,true,HKG,Asia Pacific,Hong Kong,31 ms,1244 kB/s
154.204.30.68,443,true,HKG,Asia Pacific,Hong Kong,55 ms,755 kB/s
8.212.2.154,443,true,SIN,Asia Pacific,Singapore,32 ms,627 kB/s
8.212.55.112,443,true,HKG,Asia Pacific,Hong Kong,32 ms,345 kB/s
47.57.233.126,443,true,SJC,North America,San Jose,33 ms,332 kB/s
35.215.180.54,443,true,HKG,Asia Pacific,Hong Kong,34 ms,332 kB/s
118.26.38.134,443,true,HKG,Asia Pacific,Hong Kong,42 ms,109 kB/s
43.135.112.144,443,true,HKG,Asia Pacific,Hong Kong,33 ms,57 kB/s
172.93.188.157,443,true,HKG,Asia Pacific,Hong Kong,35 ms,3 kB/s
172.93.165.228,443,true,HKG,Asia Pacific,Hong Kong,35 ms,3 kB/s
61.93.10.88,443,true,HKG,Asia Pacific,Hong Kong,63 ms,0 kB/s
